\relax 
\providecommand\hyper@newdestlabel[2]{}
\catcode `"\active 
\AC@reset@newl@bel
\providecommand\HyperFirstAtBeginDocument{\AtBeginDocument}
\HyperFirstAtBeginDocument{\ifx\hyper@anchor\@undefined
\global\let\oldcontentsline\contentsline
\gdef\contentsline#1#2#3#4{\oldcontentsline{#1}{#2}{#3}}
\global\let\oldnewlabel\newlabel
\gdef\newlabel#1#2{\newlabelxx{#1}#2}
\gdef\newlabelxx#1#2#3#4#5#6{\oldnewlabel{#1}{{#2}{#3}}}
\AtEndDocument{\ifx\hyper@anchor\@undefined
\let\contentsline\oldcontentsline
\let\newlabel\oldnewlabel
\fi}
\fi}
\global\let\hyper@last\relax 
\gdef\HyperFirstAtBeginDocument#1{#1}
\providecommand\HyField@AuxAddToFields[1]{}
\providecommand\HyField@AuxAddToCoFields[2]{}
\select@language{ngerman}
\@writefile{toc}{\select@language{ngerman}}
\@writefile{lof}{\select@language{ngerman}}
\@writefile{lot}{\select@language{ngerman}}
\@writefile{toc}{\contentsline {section}{\numberline {1}Einf\IeC {\"u}hrung}{1}{section.1}}
\@writefile{toc}{\contentsline {subsection}{\numberline {1.1}Funktionalit\IeC {\"a}t (20 P.)}{1}{subsection.1.1}}
\@writefile{toc}{\contentsline {subsection}{\numberline {1.2}Dokumentation (20 P.)}{1}{subsection.1.2}}
\@writefile{toc}{\contentsline {subsection}{\numberline {1.3}Protokoll (30 P.)}{1}{subsection.1.3}}
\@writefile{toc}{\contentsline {subsection}{\numberline {1.4}Erweiterung (30 P.)}{2}{subsection.1.4}}
\@writefile{toc}{\contentsline {section}{\numberline {2}Beschreibung der Aufgabe}{3}{section.2}}
\@writefile{toc}{\contentsline {subsection}{\numberline {2.1}Klassendiagramm}{3}{subsection.2.1}}
\@writefile{lof}{\contentsline {figure}{\numberline {1}{\ignorespaces Klassendiagramm der Abgabe\relax }}{3}{figure.caption.4}}
\@writefile{toc}{\contentsline {subsection}{\numberline {2.2}Verbale Beschreibung}{3}{subsection.2.2}}
\@writefile{toc}{\contentsline {section}{\numberline {3}Design Patterns}{4}{section.3}}
\@writefile{toc}{\contentsline {subsection}{\numberline {3.1}Wie k\IeC {\"o}nnen Design Patterns unterteilt werden}{4}{subsection.3.1}}
\@writefile{toc}{\contentsline {subsubsection}{\numberline {3.1.1}creational patterns}{4}{subsubsection.3.1.1}}
\@writefile{toc}{\contentsline {subsubsection}{\numberline {3.1.2}structural patterns}{5}{subsubsection.3.1.2}}
\@writefile{toc}{\contentsline {subsubsection}{\numberline {3.1.3}behavior patterns}{5}{subsubsection.3.1.3}}
\@writefile{toc}{\contentsline {subsection}{\numberline {3.2}Wozu Design Patterns}{5}{subsection.3.2}}
\@writefile{toc}{\contentsline {subsection}{\numberline {3.3}\IeC {\"U}bersicht existierender Design Patterns}{6}{subsection.3.3}}
\@writefile{toc}{\contentsline {paragraph}{Observer}{6}{section*.5}}
\@writefile{lof}{\contentsline {figure}{\numberline {2}{\ignorespaces Observer Pattern   $\href  {https://sourcemaking.com/design_patterns/observer}{https://sourcemaking.com/design_patterns}$\relax }}{6}{figure.caption.6}}
\@writefile{toc}{\contentsline {paragraph}{Decorator}{6}{section*.7}}
\@writefile{lof}{\contentsline {figure}{\numberline {3}{\ignorespaces  Descorator Pattern   $\href  {https://sourcemaking.com/design_patterns/decorator}{https://sourcemaking.com/design_patterns}$\relax }}{6}{figure.caption.8}}
\@writefile{toc}{\contentsline {paragraph}{Factory}{6}{section*.9}}
\@writefile{lof}{\contentsline {figure}{\numberline {4}{\ignorespaces Factory Pattern   $\href  {https://sourcemaking.com/design_patterns/factory}{https://sourcemaking.com/design_patterns}$\relax }}{7}{figure.caption.10}}
\@writefile{toc}{\contentsline {paragraph}{Strategy}{7}{section*.11}}
\@writefile{lof}{\contentsline {figure}{\numberline {5}{\ignorespaces Strategy Pattern   $\href  {https://sourcemaking.com/design_patterns/strategy}{https://sourcemaking.com/design_patterns}$\relax }}{7}{figure.caption.12}}
\@writefile{toc}{\contentsline {section}{\numberline {4}Decorator Pattern}{8}{section.4}}
\@writefile{toc}{\contentsline {subsection}{\numberline {4.1}Allgemeines Klassendiagramm}{8}{subsection.4.1}}
\@writefile{lof}{\contentsline {figure}{\numberline {6}{\ignorespaces  Descorator Pattern   $\href  {https://sourcemaking.com/design_patterns/decorator}{https://sourcemaking.com/design_patterns}$\relax }}{8}{figure.caption.13}}
\@writefile{toc}{\contentsline {subsection}{\numberline {4.2}Grundz\IeC {\"u}ge des Design Patterns}{8}{subsection.4.2}}
\@writefile{toc}{\contentsline {subsection}{\numberline {4.3}Vor- und Nachteile}{8}{subsection.4.3}}
\@writefile{toc}{\contentsline {subsection}{\numberline {4.4}Weitere Anwendungsf\IeC {\"a}lle}{9}{subsection.4.4}}
\@writefile{toc}{\contentsline {section}{\numberline {5}Strategy Pattern}{10}{section.5}}
\@writefile{toc}{\contentsline {subsection}{\numberline {5.1}Allgemeines Klassendiagramm}{10}{subsection.5.1}}
\@writefile{lof}{\contentsline {figure}{\numberline {7}{\ignorespaces  Descorator Pattern   $\href  {https://sourcemaking.com/design_patterns/strategy}{https://sourcemaking.com/design_patterns}$\relax }}{10}{figure.caption.14}}
\@writefile{toc}{\contentsline {subsection}{\numberline {5.2}Grundz\IeC {\"u}ge des Design Patterns}{10}{subsection.5.2}}
\@writefile{toc}{\contentsline {subsection}{\numberline {5.3}Vor- und Nachteile}{10}{subsection.5.3}}
\@writefile{toc}{\contentsline {subsection}{\numberline {5.4}Weitere Anwendungsf\IeC {\"a}lle}{11}{subsection.5.4}}
\@writefile{toc}{\contentsline {section}{\numberline {6}resources}{12}{section.6}}
\bibstyle{unsrt}
